{
  "model" : "Turbine",
  "originalMeshFile" : "./inputs/TurbineBlade.exo",
  "ellipsoidalMeshFile" : "./inputs/20VF_MTR_Ellipsoids.xdmf",
  "albanyInputTemplateFile" : "./inputs/turbineInputTemplate.yaml",
  "transferDataSetTranslation" : [-6.5000,  3.0000, 50.7500],
  "transferDataSetScale" : 0.001,
  "transferDataSetRotation" : [0.0, 0.0, 90.0],
  "hardnessGenerationStyle" : "randomLabelled",
  "basematElasticModulus" : 3.0e6,
  "hardmatElasticModulus" : 3.9e6,
  "softmatElasticModulus" : 2.1e6
}
